<?xml version='1.0' encoding='utf-8'?>
<gexf xmlns="http://www.gexf.net/1.2draft" xmlns:xsi="http://www.w3.org/2001/XMLSchema-instance" xsi:schemaLocation="http://www.gexf.net/1.2draft http://www.gexf.net/1.2draft/gexf.xsd" version="1.2">
  <meta lastmodifieddate="2021-07-19">
    <creator>NetworkX 2.5.1</creator>
  </meta>
  <graph defaultedgetype="undirected" mode="static" name="">
    <nodes>
      <node id="(0, 0)" label="(0, 0)" />
      <node id="(0, 1)" label="(0, 1)" />
      <node id="(0, 2)" label="(0, 2)" />
      <node id="(0, 3)" label="(0, 3)" />
      <node id="(0, 4)" label="(0, 4)" />
      <node id="(0, 5)" label="(0, 5)" />
      <node id="(0, 6)" label="(0, 6)" />
      <node id="(0, 7)" label="(0, 7)" />
      <node id="(0, 8)" label="(0, 8)" />
      <node id="(0, 9)" label="(0, 9)" />
      <node id="(0, 10)" label="(0, 10)" />
      <node id="(1, 0)" label="(1, 0)" />
      <node id="(1, 1)" label="(1, 1)" />
      <node id="(1, 2)" label="(1, 2)" />
      <node id="(1, 3)" label="(1, 3)" />
      <node id="(1, 4)" label="(1, 4)" />
      <node id="(1, 5)" label="(1, 5)" />
      <node id="(1, 6)" label="(1, 6)" />
      <node id="(1, 7)" label="(1, 7)" />
      <node id="(1, 8)" label="(1, 8)" />
      <node id="(1, 9)" label="(1, 9)" />
      <node id="(1, 10)" label="(1, 10)" />
      <node id="(2, 0)" label="(2, 0)" />
      <node id="(2, 1)" label="(2, 1)" />
      <node id="(2, 2)" label="(2, 2)" />
      <node id="(2, 3)" label="(2, 3)" />
      <node id="(2, 4)" label="(2, 4)" />
      <node id="(2, 5)" label="(2, 5)" />
      <node id="(2, 6)" label="(2, 6)" />
      <node id="(2, 7)" label="(2, 7)" />
      <node id="(2, 8)" label="(2, 8)" />
      <node id="(2, 9)" label="(2, 9)" />
      <node id="(2, 10)" label="(2, 10)" />
      <node id="(3, 0)" label="(3, 0)" />
      <node id="(3, 1)" label="(3, 1)" />
      <node id="(3, 2)" label="(3, 2)" />
      <node id="(3, 3)" label="(3, 3)" />
      <node id="(3, 4)" label="(3, 4)" />
      <node id="(3, 5)" label="(3, 5)" />
      <node id="(3, 6)" label="(3, 6)" />
      <node id="(3, 7)" label="(3, 7)" />
      <node id="(3, 8)" label="(3, 8)" />
      <node id="(3, 9)" label="(3, 9)" />
      <node id="(3, 10)" label="(3, 10)" />
      <node id="(4, 0)" label="(4, 0)" />
      <node id="(4, 1)" label="(4, 1)" />
      <node id="(4, 2)" label="(4, 2)" />
      <node id="(4, 3)" label="(4, 3)" />
      <node id="(4, 4)" label="(4, 4)" />
      <node id="(4, 5)" label="(4, 5)" />
      <node id="(4, 6)" label="(4, 6)" />
      <node id="(4, 7)" label="(4, 7)" />
      <node id="(4, 8)" label="(4, 8)" />
      <node id="(4, 9)" label="(4, 9)" />
      <node id="(4, 10)" label="(4, 10)" />
      <node id="(5, 0)" label="(5, 0)" />
      <node id="(5, 1)" label="(5, 1)" />
      <node id="(5, 2)" label="(5, 2)" />
      <node id="(5, 3)" label="(5, 3)" />
      <node id="(5, 4)" label="(5, 4)" />
      <node id="(5, 5)" label="(5, 5)" />
      <node id="(5, 6)" label="(5, 6)" />
      <node id="(5, 7)" label="(5, 7)" />
      <node id="(5, 8)" label="(5, 8)" />
      <node id="(5, 9)" label="(5, 9)" />
      <node id="(5, 10)" label="(5, 10)" />
      <node id="(6, 0)" label="(6, 0)" />
      <node id="(6, 1)" label="(6, 1)" />
      <node id="(6, 2)" label="(6, 2)" />
      <node id="(6, 3)" label="(6, 3)" />
      <node id="(6, 4)" label="(6, 4)" />
      <node id="(6, 5)" label="(6, 5)" />
      <node id="(6, 6)" label="(6, 6)" />
      <node id="(6, 7)" label="(6, 7)" />
      <node id="(6, 8)" label="(6, 8)" />
      <node id="(6, 9)" label="(6, 9)" />
      <node id="(6, 10)" label="(6, 10)" />
      <node id="(7, 0)" label="(7, 0)" />
      <node id="(7, 1)" label="(7, 1)" />
      <node id="(7, 2)" label="(7, 2)" />
      <node id="(7, 3)" label="(7, 3)" />
      <node id="(7, 4)" label="(7, 4)" />
      <node id="(7, 5)" label="(7, 5)" />
      <node id="(7, 6)" label="(7, 6)" />
      <node id="(7, 7)" label="(7, 7)" />
      <node id="(7, 8)" label="(7, 8)" />
      <node id="(7, 9)" label="(7, 9)" />
      <node id="(7, 10)" label="(7, 10)" />
      <node id="(8, 0)" label="(8, 0)" />
      <node id="(8, 1)" label="(8, 1)" />
      <node id="(8, 2)" label="(8, 2)" />
      <node id="(8, 3)" label="(8, 3)" />
      <node id="(8, 4)" label="(8, 4)" />
      <node id="(8, 5)" label="(8, 5)" />
      <node id="(8, 6)" label="(8, 6)" />
      <node id="(8, 7)" label="(8, 7)" />
      <node id="(8, 8)" label="(8, 8)" />
      <node id="(8, 9)" label="(8, 9)" />
      <node id="(8, 10)" label="(8, 10)" />
      <node id="(9, 0)" label="(9, 0)" />
      <node id="(9, 1)" label="(9, 1)" />
      <node id="(9, 2)" label="(9, 2)" />
      <node id="(9, 3)" label="(9, 3)" />
      <node id="(9, 4)" label="(9, 4)" />
      <node id="(9, 5)" label="(9, 5)" />
      <node id="(9, 6)" label="(9, 6)" />
      <node id="(9, 7)" label="(9, 7)" />
      <node id="(9, 8)" label="(9, 8)" />
      <node id="(9, 9)" label="(9, 9)" />
      <node id="(9, 10)" label="(9, 10)" />
      <node id="(10, 0)" label="(10, 0)" />
      <node id="(10, 1)" label="(10, 1)" />
      <node id="(10, 2)" label="(10, 2)" />
      <node id="(10, 3)" label="(10, 3)" />
      <node id="(10, 4)" label="(10, 4)" />
      <node id="(10, 5)" label="(10, 5)" />
      <node id="(10, 6)" label="(10, 6)" />
      <node id="(10, 7)" label="(10, 7)" />
      <node id="(10, 8)" label="(10, 8)" />
      <node id="(10, 9)" label="(10, 9)" />
      <node id="(10, 10)" label="(10, 10)" />
    </nodes>
    <edges>
      <edge source="(0, 0)" target="(1, 0)" id="0" />
      <edge source="(0, 0)" target="(0, 1)" id="1" />
      <edge source="(0, 1)" target="(1, 1)" id="2" />
      <edge source="(0, 1)" target="(0, 2)" id="3" />
      <edge source="(0, 2)" target="(1, 2)" id="4" />
      <edge source="(0, 2)" target="(0, 3)" id="5" />
      <edge source="(0, 3)" target="(1, 3)" id="6" />
      <edge source="(0, 3)" target="(0, 4)" id="7" />
      <edge source="(0, 4)" target="(1, 4)" id="8" />
      <edge source="(0, 4)" target="(0, 5)" id="9" />
      <edge source="(0, 5)" target="(1, 5)" id="10" />
      <edge source="(0, 5)" target="(0, 6)" id="11" />
      <edge source="(0, 6)" target="(1, 6)" id="12" />
      <edge source="(0, 6)" target="(0, 7)" id="13" />
      <edge source="(0, 7)" target="(1, 7)" id="14" />
      <edge source="(0, 7)" target="(0, 8)" id="15" />
      <edge source="(0, 8)" target="(1, 8)" id="16" />
      <edge source="(0, 8)" target="(0, 9)" id="17" />
      <edge source="(0, 9)" target="(1, 9)" id="18" />
      <edge source="(0, 9)" target="(0, 10)" id="19" />
      <edge source="(0, 10)" target="(1, 10)" id="20" />
      <edge source="(1, 0)" target="(2, 0)" id="21" />
      <edge source="(1, 0)" target="(1, 1)" id="22" />
      <edge source="(1, 1)" target="(2, 1)" id="23" />
      <edge source="(1, 1)" target="(1, 2)" id="24" />
      <edge source="(1, 2)" target="(2, 2)" id="25" />
      <edge source="(1, 2)" target="(1, 3)" id="26" />
      <edge source="(1, 3)" target="(2, 3)" id="27" />
      <edge source="(1, 3)" target="(1, 4)" id="28" />
      <edge source="(1, 4)" target="(2, 4)" id="29" />
      <edge source="(1, 4)" target="(1, 5)" id="30" />
      <edge source="(1, 5)" target="(2, 5)" id="31" />
      <edge source="(1, 5)" target="(1, 6)" id="32" />
      <edge source="(1, 6)" target="(2, 6)" id="33" />
      <edge source="(1, 6)" target="(1, 7)" id="34" />
      <edge source="(1, 7)" target="(2, 7)" id="35" />
      <edge source="(1, 7)" target="(1, 8)" id="36" />
      <edge source="(1, 8)" target="(2, 8)" id="37" />
      <edge source="(1, 8)" target="(1, 9)" id="38" />
      <edge source="(1, 9)" target="(2, 9)" id="39" />
      <edge source="(1, 9)" target="(1, 10)" id="40" />
      <edge source="(1, 10)" target="(2, 10)" id="41" />
      <edge source="(2, 0)" target="(3, 0)" id="42" />
      <edge source="(2, 0)" target="(2, 1)" id="43" />
      <edge source="(2, 1)" target="(3, 1)" id="44" />
      <edge source="(2, 1)" target="(2, 2)" id="45" />
      <edge source="(2, 2)" target="(3, 2)" id="46" />
      <edge source="(2, 2)" target="(2, 3)" id="47" />
      <edge source="(2, 3)" target="(3, 3)" id="48" />
      <edge source="(2, 3)" target="(2, 4)" id="49" />
      <edge source="(2, 4)" target="(3, 4)" id="50" />
      <edge source="(2, 4)" target="(2, 5)" id="51" />
      <edge source="(2, 5)" target="(3, 5)" id="52" />
      <edge source="(2, 5)" target="(2, 6)" id="53" />
      <edge source="(2, 6)" target="(3, 6)" id="54" />
      <edge source="(2, 6)" target="(2, 7)" id="55" />
      <edge source="(2, 7)" target="(3, 7)" id="56" />
      <edge source="(2, 7)" target="(2, 8)" id="57" />
      <edge source="(2, 8)" target="(3, 8)" id="58" />
      <edge source="(2, 8)" target="(2, 9)" id="59" />
      <edge source="(2, 9)" target="(3, 9)" id="60" />
      <edge source="(2, 9)" target="(2, 10)" id="61" />
      <edge source="(2, 10)" target="(3, 10)" id="62" />
      <edge source="(3, 0)" target="(4, 0)" id="63" />
      <edge source="(3, 0)" target="(3, 1)" id="64" />
      <edge source="(3, 1)" target="(4, 1)" id="65" />
      <edge source="(3, 1)" target="(3, 2)" id="66" />
      <edge source="(3, 2)" target="(4, 2)" id="67" />
      <edge source="(3, 2)" target="(3, 3)" id="68" />
      <edge source="(3, 3)" target="(4, 3)" id="69" />
      <edge source="(3, 3)" target="(3, 4)" id="70" />
      <edge source="(3, 4)" target="(4, 4)" id="71" />
      <edge source="(3, 4)" target="(3, 5)" id="72" />
      <edge source="(3, 5)" target="(4, 5)" id="73" />
      <edge source="(3, 5)" target="(3, 6)" id="74" />
      <edge source="(3, 6)" target="(4, 6)" id="75" />
      <edge source="(3, 6)" target="(3, 7)" id="76" />
      <edge source="(3, 7)" target="(4, 7)" id="77" />
      <edge source="(3, 7)" target="(3, 8)" id="78" />
      <edge source="(3, 8)" target="(4, 8)" id="79" />
      <edge source="(3, 8)" target="(3, 9)" id="80" />
      <edge source="(3, 9)" target="(4, 9)" id="81" />
      <edge source="(3, 9)" target="(3, 10)" id="82" />
      <edge source="(3, 10)" target="(4, 10)" id="83" />
      <edge source="(4, 0)" target="(5, 0)" id="84" />
      <edge source="(4, 0)" target="(4, 1)" id="85" />
      <edge source="(4, 1)" target="(5, 1)" id="86" />
      <edge source="(4, 1)" target="(4, 2)" id="87" />
      <edge source="(4, 2)" target="(5, 2)" id="88" />
      <edge source="(4, 2)" target="(4, 3)" id="89" />
      <edge source="(4, 3)" target="(5, 3)" id="90" />
      <edge source="(4, 3)" target="(4, 4)" id="91" />
      <edge source="(4, 4)" target="(5, 4)" id="92" />
      <edge source="(4, 4)" target="(4, 5)" id="93" />
      <edge source="(4, 5)" target="(5, 5)" id="94" />
      <edge source="(4, 5)" target="(4, 6)" id="95" />
      <edge source="(4, 6)" target="(5, 6)" id="96" />
      <edge source="(4, 6)" target="(4, 7)" id="97" />
      <edge source="(4, 7)" target="(5, 7)" id="98" />
      <edge source="(4, 7)" target="(4, 8)" id="99" />
      <edge source="(4, 8)" target="(5, 8)" id="100" />
      <edge source="(4, 8)" target="(4, 9)" id="101" />
      <edge source="(4, 9)" target="(5, 9)" id="102" />
      <edge source="(4, 9)" target="(4, 10)" id="103" />
      <edge source="(4, 10)" target="(5, 10)" id="104" />
      <edge source="(5, 0)" target="(6, 0)" id="105" />
      <edge source="(5, 0)" target="(5, 1)" id="106" />
      <edge source="(5, 1)" target="(6, 1)" id="107" />
      <edge source="(5, 1)" target="(5, 2)" id="108" />
      <edge source="(5, 2)" target="(6, 2)" id="109" />
      <edge source="(5, 2)" target="(5, 3)" id="110" />
      <edge source="(5, 3)" target="(6, 3)" id="111" />
      <edge source="(5, 3)" target="(5, 4)" id="112" />
      <edge source="(5, 4)" target="(6, 4)" id="113" />
      <edge source="(5, 4)" target="(5, 5)" id="114" />
      <edge source="(5, 5)" target="(6, 5)" id="115" />
      <edge source="(5, 5)" target="(5, 6)" id="116" />
      <edge source="(5, 6)" target="(6, 6)" id="117" />
      <edge source="(5, 6)" target="(5, 7)" id="118" />
      <edge source="(5, 7)" target="(6, 7)" id="119" />
      <edge source="(5, 7)" target="(5, 8)" id="120" />
      <edge source="(5, 8)" target="(6, 8)" id="121" />
      <edge source="(5, 8)" target="(5, 9)" id="122" />
      <edge source="(5, 9)" target="(6, 9)" id="123" />
      <edge source="(5, 9)" target="(5, 10)" id="124" />
      <edge source="(5, 10)" target="(6, 10)" id="125" />
      <edge source="(6, 0)" target="(7, 0)" id="126" />
      <edge source="(6, 0)" target="(6, 1)" id="127" />
      <edge source="(6, 1)" target="(7, 1)" id="128" />
      <edge source="(6, 1)" target="(6, 2)" id="129" />
      <edge source="(6, 2)" target="(7, 2)" id="130" />
      <edge source="(6, 2)" target="(6, 3)" id="131" />
      <edge source="(6, 3)" target="(7, 3)" id="132" />
      <edge source="(6, 3)" target="(6, 4)" id="133" />
      <edge source="(6, 4)" target="(7, 4)" id="134" />
      <edge source="(6, 4)" target="(6, 5)" id="135" />
      <edge source="(6, 5)" target="(7, 5)" id="136" />
      <edge source="(6, 5)" target="(6, 6)" id="137" />
      <edge source="(6, 6)" target="(7, 6)" id="138" />
      <edge source="(6, 6)" target="(6, 7)" id="139" />
      <edge source="(6, 7)" target="(7, 7)" id="140" />
      <edge source="(6, 7)" target="(6, 8)" id="141" />
      <edge source="(6, 8)" target="(7, 8)" id="142" />
      <edge source="(6, 8)" target="(6, 9)" id="143" />
      <edge source="(6, 9)" target="(7, 9)" id="144" />
      <edge source="(6, 9)" target="(6, 10)" id="145" />
      <edge source="(6, 10)" target="(7, 10)" id="146" />
      <edge source="(7, 0)" target="(8, 0)" id="147" />
      <edge source="(7, 0)" target="(7, 1)" id="148" />
      <edge source="(7, 1)" target="(8, 1)" id="149" />
      <edge source="(7, 1)" target="(7, 2)" id="150" />
      <edge source="(7, 2)" target="(8, 2)" id="151" />
      <edge source="(7, 2)" target="(7, 3)" id="152" />
      <edge source="(7, 3)" target="(8, 3)" id="153" />
      <edge source="(7, 3)" target="(7, 4)" id="154" />
      <edge source="(7, 4)" target="(8, 4)" id="155" />
      <edge source="(7, 4)" target="(7, 5)" id="156" />
      <edge source="(7, 5)" target="(8, 5)" id="157" />
      <edge source="(7, 5)" target="(7, 6)" id="158" />
      <edge source="(7, 6)" target="(8, 6)" id="159" />
      <edge source="(7, 6)" target="(7, 7)" id="160" />
      <edge source="(7, 7)" target="(8, 7)" id="161" />
      <edge source="(7, 7)" target="(7, 8)" id="162" />
      <edge source="(7, 8)" target="(8, 8)" id="163" />
      <edge source="(7, 8)" target="(7, 9)" id="164" />
      <edge source="(7, 9)" target="(8, 9)" id="165" />
      <edge source="(7, 9)" target="(7, 10)" id="166" />
      <edge source="(7, 10)" target="(8, 10)" id="167" />
      <edge source="(8, 0)" target="(9, 0)" id="168" />
      <edge source="(8, 0)" target="(8, 1)" id="169" />
      <edge source="(8, 1)" target="(9, 1)" id="170" />
      <edge source="(8, 1)" target="(8, 2)" id="171" />
      <edge source="(8, 2)" target="(9, 2)" id="172" />
      <edge source="(8, 2)" target="(8, 3)" id="173" />
      <edge source="(8, 3)" target="(9, 3)" id="174" />
      <edge source="(8, 3)" target="(8, 4)" id="175" />
      <edge source="(8, 4)" target="(9, 4)" id="176" />
      <edge source="(8, 4)" target="(8, 5)" id="177" />
      <edge source="(8, 5)" target="(9, 5)" id="178" />
      <edge source="(8, 5)" target="(8, 6)" id="179" />
      <edge source="(8, 6)" target="(9, 6)" id="180" />
      <edge source="(8, 6)" target="(8, 7)" id="181" />
      <edge source="(8, 7)" target="(9, 7)" id="182" />
      <edge source="(8, 7)" target="(8, 8)" id="183" />
      <edge source="(8, 8)" target="(9, 8)" id="184" />
      <edge source="(8, 8)" target="(8, 9)" id="185" />
      <edge source="(8, 9)" target="(9, 9)" id="186" />
      <edge source="(8, 9)" target="(8, 10)" id="187" />
      <edge source="(8, 10)" target="(9, 10)" id="188" />
      <edge source="(9, 0)" target="(10, 0)" id="189" />
      <edge source="(9, 0)" target="(9, 1)" id="190" />
      <edge source="(9, 1)" target="(10, 1)" id="191" />
      <edge source="(9, 1)" target="(9, 2)" id="192" />
      <edge source="(9, 2)" target="(10, 2)" id="193" />
      <edge source="(9, 2)" target="(9, 3)" id="194" />
      <edge source="(9, 3)" target="(10, 3)" id="195" />
      <edge source="(9, 3)" target="(9, 4)" id="196" />
      <edge source="(9, 4)" target="(10, 4)" id="197" />
      <edge source="(9, 4)" target="(9, 5)" id="198" />
      <edge source="(9, 5)" target="(10, 5)" id="199" />
      <edge source="(9, 5)" target="(9, 6)" id="200" />
      <edge source="(9, 6)" target="(10, 6)" id="201" />
      <edge source="(9, 6)" target="(9, 7)" id="202" />
      <edge source="(9, 7)" target="(10, 7)" id="203" />
      <edge source="(9, 7)" target="(9, 8)" id="204" />
      <edge source="(9, 8)" target="(10, 8)" id="205" />
      <edge source="(9, 8)" target="(9, 9)" id="206" />
      <edge source="(9, 9)" target="(10, 9)" id="207" />
      <edge source="(9, 9)" target="(9, 10)" id="208" />
      <edge source="(9, 10)" target="(10, 10)" id="209" />
      <edge source="(10, 0)" target="(10, 1)" id="210" />
      <edge source="(10, 1)" target="(10, 2)" id="211" />
      <edge source="(10, 2)" target="(10, 3)" id="212" />
      <edge source="(10, 3)" target="(10, 4)" id="213" />
      <edge source="(10, 4)" target="(10, 5)" id="214" />
      <edge source="(10, 5)" target="(10, 6)" id="215" />
      <edge source="(10, 6)" target="(10, 7)" id="216" />
      <edge source="(10, 7)" target="(10, 8)" id="217" />
      <edge source="(10, 8)" target="(10, 9)" id="218" />
      <edge source="(10, 9)" target="(10, 10)" id="219" />
    </edges>
  </graph>
</gexf>
