<?xml version='1.0' encoding='utf-8'?>
<gexf xmlns="http://www.gexf.net/1.2draft" xmlns:xsi="http://www.w3.org/2001/XMLSchema-instance" xsi:schemaLocation="http://www.gexf.net/1.2draft http://www.gexf.net/1.2draft/gexf.xsd" version="1.2">
  <meta lastmodifieddate="2021-07-19">
    <creator>NetworkX 2.5.1</creator>
  </meta>
  <graph defaultedgetype="undirected" mode="static" name="">
    <nodes>
      <node id="15" label="15" />
      <node id="21" label="21" />
      <node id="36" label="36" />
      <node id="62" label="62" />
      <node id="47" label="47" />
      <node id="71" label="71" />
      <node id="18" label="18" />
      <node id="44" label="44" />
      <node id="8" label="8" />
      <node id="9" label="9" />
      <node id="29" label="29" />
      <node id="41" label="41" />
      <node id="40" label="40" />
      <node id="77" label="77" />
      <node id="73" label="73" />
      <node id="74" label="74" />
      <node id="2" label="2" />
      <node id="32" label="32" />
      <node id="54" label="54" />
      <node id="79" label="79" />
      <node id="56" label="56" />
      <node id="43" label="43" />
      <node id="78" label="78" />
      <node id="24" label="24" />
      <node id="58" label="58" />
      <node id="65" label="65" />
      <node id="51" label="51" />
      <node id="59" label="59" />
      <node id="35" label="35" />
      <node id="17" label="17" />
      <node id="75" label="75" />
      <node id="10" label="10" />
      <node id="26" label="26" />
      <node id="22" label="22" />
      <node id="4" label="4" />
      <node id="68" label="68" />
      <node id="3" label="3" />
      <node id="14" label="14" />
      <node id="72" label="72" />
      <node id="34" label="34" />
      <node id="7" label="7" />
      <node id="11" label="11" />
      <node id="55" label="55" />
      <node id="60" label="60" />
      <node id="69" label="69" />
      <node id="6" label="6" />
      <node id="19" label="19" />
      <node id="39" label="39" />
      <node id="57" label="57" />
      <node id="30" label="30" />
      <node id="20" label="20" />
      <node id="50" label="50" />
      <node id="13" label="13" />
      <node id="46" label="46" />
      <node id="38" label="38" />
      <node id="5" label="5" />
      <node id="28" label="28" />
      <node id="66" label="66" />
      <node id="52" label="52" />
      <node id="12" label="12" />
      <node id="63" label="63" />
      <node id="37" label="37" />
      <node id="49" label="49" />
      <node id="23" label="23" />
      <node id="61" label="61" />
      <node id="27" label="27" />
      <node id="64" label="64" />
      <node id="0" label="0" />
      <node id="42" label="42" />
      <node id="70" label="70" />
      <node id="53" label="53" />
      <node id="67" label="67" />
      <node id="16" label="16" />
      <node id="1" label="1" />
      <node id="25" label="25" />
      <node id="45" label="45" />
      <node id="76" label="76" />
      <node id="31" label="31" />
      <node id="33" label="33" />
      <node id="48" label="48" />
    </nodes>
    <edges>
      <edge source="15" target="21" id="0" />
      <edge source="15" target="12" id="1" />
      <edge source="15" target="20" id="2" />
      <edge source="15" target="5" id="3" />
      <edge source="15" target="64" id="4" />
      <edge source="15" target="50" id="5" />
      <edge source="15" target="68" id="6" />
      <edge source="15" target="26" id="7" />
      <edge source="21" target="18" id="8" />
      <edge source="21" target="13" id="9" />
      <edge source="21" target="76" id="10" />
      <edge source="21" target="43" id="11" />
      <edge source="21" target="9" id="12" />
      <edge source="21" target="65" id="13" />
      <edge source="21" target="4" id="14" />
      <edge source="36" target="62" id="15" />
      <edge source="36" target="29" id="16" />
      <edge source="36" target="43" id="17" />
      <edge source="36" target="37" id="18" />
      <edge source="36" target="27" id="19" />
      <edge source="36" target="30" id="20" />
      <edge source="36" target="55" id="21" />
      <edge source="36" target="40" id="22" />
      <edge source="62" target="12" id="23" />
      <edge source="62" target="7" id="24" />
      <edge source="62" target="10" id="25" />
      <edge source="62" target="60" id="26" />
      <edge source="62" target="52" id="27" />
      <edge source="62" target="3" id="28" />
      <edge source="62" target="25" id="29" />
      <edge source="47" target="71" id="30" />
      <edge source="47" target="65" id="31" />
      <edge source="47" target="1" id="32" />
      <edge source="47" target="23" id="33" />
      <edge source="47" target="77" id="34" />
      <edge source="47" target="19" id="35" />
      <edge source="47" target="0" id="36" />
      <edge source="47" target="76" id="37" />
      <edge source="71" target="69" id="38" />
      <edge source="71" target="20" id="39" />
      <edge source="71" target="42" id="40" />
      <edge source="71" target="34" id="41" />
      <edge source="71" target="5" id="42" />
      <edge source="71" target="35" id="43" />
      <edge source="71" target="63" id="44" />
      <edge source="18" target="44" id="45" />
      <edge source="18" target="3" id="46" />
      <edge source="18" target="72" id="47" />
      <edge source="18" target="25" id="48" />
      <edge source="18" target="43" id="49" />
      <edge source="18" target="37" id="50" />
      <edge source="18" target="31" id="51" />
      <edge source="44" target="56" id="52" />
      <edge source="44" target="12" id="53" />
      <edge source="44" target="4" id="54" />
      <edge source="44" target="37" id="55" />
      <edge source="44" target="30" id="56" />
      <edge source="44" target="3" id="57" />
      <edge source="44" target="57" id="58" />
      <edge source="8" target="9" id="59" />
      <edge source="8" target="51" id="60" />
      <edge source="8" target="78" id="61" />
      <edge source="8" target="50" id="62" />
      <edge source="8" target="31" id="63" />
      <edge source="8" target="67" id="64" />
      <edge source="8" target="25" id="65" />
      <edge source="8" target="34" id="66" />
      <edge source="9" target="58" id="67" />
      <edge source="9" target="56" id="68" />
      <edge source="9" target="65" id="69" />
      <edge source="9" target="73" id="70" />
      <edge source="9" target="32" id="71" />
      <edge source="9" target="16" id="72" />
      <edge source="29" target="41" id="73" />
      <edge source="29" target="77" id="74" />
      <edge source="29" target="53" id="75" />
      <edge source="29" target="57" id="76" />
      <edge source="29" target="75" id="77" />
      <edge source="29" target="16" id="78" />
      <edge source="29" target="69" id="79" />
      <edge source="41" target="40" id="80" />
      <edge source="41" target="68" id="81" />
      <edge source="41" target="58" id="82" />
      <edge source="41" target="28" id="83" />
      <edge source="41" target="34" id="84" />
      <edge source="41" target="37" id="85" />
      <edge source="41" target="70" id="86" />
      <edge source="40" target="77" id="87" />
      <edge source="40" target="54" id="88" />
      <edge source="40" target="16" id="89" />
      <edge source="40" target="66" id="90" />
      <edge source="40" target="28" id="91" />
      <edge source="40" target="1" id="92" />
      <edge source="77" target="54" id="93" />
      <edge source="77" target="39" id="94" />
      <edge source="77" target="33" id="95" />
      <edge source="77" target="26" id="96" />
      <edge source="77" target="75" id="97" />
      <edge source="73" target="74" id="98" />
      <edge source="73" target="46" id="99" />
      <edge source="73" target="38" id="100" />
      <edge source="73" target="22" id="101" />
      <edge source="73" target="55" id="102" />
      <edge source="73" target="17" id="103" />
      <edge source="73" target="69" id="104" />
      <edge source="74" target="24" id="105" />
      <edge source="74" target="46" id="106" />
      <edge source="74" target="60" id="107" />
      <edge source="74" target="1" id="108" />
      <edge source="74" target="12" id="109" />
      <edge source="74" target="34" id="110" />
      <edge source="74" target="45" id="111" />
      <edge source="2" target="32" id="112" />
      <edge source="2" target="22" id="113" />
      <edge source="2" target="35" id="114" />
      <edge source="2" target="11" id="115" />
      <edge source="2" target="39" id="116" />
      <edge source="2" target="0" id="117" />
      <edge source="2" target="70" id="118" />
      <edge source="2" target="51" id="119" />
      <edge source="32" target="59" id="120" />
      <edge source="32" target="58" id="121" />
      <edge source="32" target="43" id="122" />
      <edge source="32" target="38" id="123" />
      <edge source="32" target="7" id="124" />
      <edge source="32" target="27" id="125" />
      <edge source="54" target="79" id="126" />
      <edge source="54" target="65" id="127" />
      <edge source="54" target="5" id="128" />
      <edge source="54" target="59" id="129" />
      <edge source="54" target="11" id="130" />
      <edge source="54" target="23" id="131" />
      <edge source="79" target="19" id="132" />
      <edge source="79" target="38" id="133" />
      <edge source="79" target="39" id="134" />
      <edge source="79" target="33" id="135" />
      <edge source="79" target="4" id="136" />
      <edge source="79" target="7" id="137" />
      <edge source="79" target="70" id="138" />
      <edge source="56" target="17" id="139" />
      <edge source="56" target="0" id="140" />
      <edge source="56" target="42" id="141" />
      <edge source="56" target="25" id="142" />
      <edge source="56" target="30" id="143" />
      <edge source="56" target="52" id="144" />
      <edge source="43" target="78" id="145" />
      <edge source="43" target="10" id="146" />
      <edge source="43" target="76" id="147" />
      <edge source="43" target="48" id="148" />
      <edge source="78" target="24" id="149" />
      <edge source="78" target="35" id="150" />
      <edge source="78" target="33" id="151" />
      <edge source="78" target="31" id="152" />
      <edge source="78" target="34" id="153" />
      <edge source="78" target="75" id="154" />
      <edge source="24" target="26" id="155" />
      <edge source="24" target="35" id="156" />
      <edge source="24" target="7" id="157" />
      <edge source="24" target="72" id="158" />
      <edge source="24" target="53" id="159" />
      <edge source="24" target="5" id="160" />
      <edge source="58" target="66" id="161" />
      <edge source="58" target="61" id="162" />
      <edge source="58" target="49" id="163" />
      <edge source="58" target="31" id="164" />
      <edge source="58" target="33" id="165" />
      <edge source="65" target="30" id="166" />
      <edge source="65" target="12" id="167" />
      <edge source="65" target="59" id="168" />
      <edge source="65" target="52" id="169" />
      <edge source="51" target="59" id="170" />
      <edge source="51" target="72" id="171" />
      <edge source="51" target="6" id="172" />
      <edge source="51" target="1" id="173" />
      <edge source="51" target="50" id="174" />
      <edge source="51" target="19" id="175" />
      <edge source="59" target="0" id="176" />
      <edge source="59" target="55" id="177" />
      <edge source="59" target="61" id="178" />
      <edge source="59" target="69" id="179" />
      <edge source="35" target="50" id="180" />
      <edge source="35" target="22" id="181" />
      <edge source="35" target="76" id="182" />
      <edge source="35" target="31" id="183" />
      <edge source="17" target="75" id="184" />
      <edge source="17" target="34" id="185" />
      <edge source="17" target="70" id="186" />
      <edge source="17" target="55" id="187" />
      <edge source="17" target="45" id="188" />
      <edge source="17" target="31" id="189" />
      <edge source="75" target="53" id="190" />
      <edge source="75" target="7" id="191" />
      <edge source="75" target="68" id="192" />
      <edge source="75" target="63" id="193" />
      <edge source="10" target="26" id="194" />
      <edge source="10" target="30" id="195" />
      <edge source="10" target="70" id="196" />
      <edge source="10" target="20" id="197" />
      <edge source="10" target="19" id="198" />
      <edge source="10" target="0" id="199" />
      <edge source="26" target="61" id="200" />
      <edge source="26" target="1" id="201" />
      <edge source="26" target="64" id="202" />
      <edge source="26" target="63" id="203" />
      <edge source="22" target="5" id="204" />
      <edge source="22" target="55" id="205" />
      <edge source="22" target="63" id="206" />
      <edge source="22" target="25" id="207" />
      <edge source="22" target="42" id="208" />
      <edge source="4" target="68" id="209" />
      <edge source="4" target="72" id="210" />
      <edge source="4" target="52" id="211" />
      <edge source="4" target="5" id="212" />
      <edge source="4" target="27" id="213" />
      <edge source="68" target="3" id="214" />
      <edge source="68" target="66" id="215" />
      <edge source="68" target="50" id="216" />
      <edge source="68" target="48" id="217" />
      <edge source="3" target="14" id="218" />
      <edge source="3" target="11" id="219" />
      <edge source="3" target="57" id="220" />
      <edge source="3" target="34" id="221" />
      <edge source="14" target="6" id="222" />
      <edge source="14" target="1" id="223" />
      <edge source="14" target="7" id="224" />
      <edge source="14" target="72" id="225" />
      <edge source="14" target="13" id="226" />
      <edge source="14" target="48" id="227" />
      <edge source="14" target="20" id="228" />
      <edge source="72" target="67" id="229" />
      <edge source="72" target="70" id="230" />
      <edge source="72" target="39" id="231" />
      <edge source="34" target="20" id="232" />
      <edge source="7" target="11" id="233" />
      <edge source="7" target="53" id="234" />
      <edge source="11" target="49" id="235" />
      <edge source="11" target="76" id="236" />
      <edge source="11" target="0" id="237" />
      <edge source="11" target="19" id="238" />
      <edge source="55" target="60" id="239" />
      <edge source="55" target="64" id="240" />
      <edge source="55" target="6" id="241" />
      <edge source="60" target="67" id="242" />
      <edge source="60" target="1" id="243" />
      <edge source="60" target="76" id="244" />
      <edge source="60" target="45" id="245" />
      <edge source="60" target="66" id="246" />
      <edge source="69" target="30" id="247" />
      <edge source="69" target="49" id="248" />
      <edge source="69" target="64" id="249" />
      <edge source="69" target="48" id="250" />
      <edge source="6" target="28" id="251" />
      <edge source="6" target="23" id="252" />
      <edge source="6" target="39" id="253" />
      <edge source="6" target="67" id="254" />
      <edge source="6" target="53" id="255" />
      <edge source="19" target="27" id="256" />
      <edge source="19" target="63" id="257" />
      <edge source="19" target="23" id="258" />
      <edge source="39" target="57" id="259" />
      <edge source="39" target="52" id="260" />
      <edge source="39" target="67" id="261" />
      <edge source="57" target="50" id="262" />
      <edge source="57" target="23" id="263" />
      <edge source="57" target="66" id="264" />
      <edge source="57" target="38" id="265" />
      <edge source="30" target="28" id="266" />
      <edge source="30" target="42" id="267" />
      <edge source="20" target="70" id="268" />
      <edge source="20" target="38" id="269" />
      <edge source="20" target="37" id="270" />
      <edge source="50" target="13" id="271" />
      <edge source="50" target="28" id="272" />
      <edge source="13" target="63" id="273" />
      <edge source="13" target="67" id="274" />
      <edge source="13" target="61" id="275" />
      <edge source="13" target="28" id="276" />
      <edge source="13" target="37" id="277" />
      <edge source="46" target="38" id="278" />
      <edge source="46" target="49" id="279" />
      <edge source="46" target="28" id="280" />
      <edge source="46" target="12" id="281" />
      <edge source="46" target="42" id="282" />
      <edge source="46" target="48" id="283" />
      <edge source="38" target="12" id="284" />
      <edge source="38" target="49" id="285" />
      <edge source="5" target="49" id="286" />
      <edge source="5" target="16" id="287" />
      <edge source="28" target="16" id="288" />
      <edge source="66" target="45" id="289" />
      <edge source="66" target="49" id="290" />
      <edge source="66" target="0" id="291" />
      <edge source="52" target="64" id="292" />
      <edge source="52" target="37" id="293" />
      <edge source="52" target="33" id="294" />
      <edge source="12" target="0" id="295" />
      <edge source="63" target="33" id="296" />
      <edge source="63" target="67" id="297" />
      <edge source="37" target="53" id="298" />
      <edge source="49" target="25" id="299" />
      <edge source="23" target="25" id="300" />
      <edge source="23" target="61" id="301" />
      <edge source="23" target="70" id="302" />
      <edge source="61" target="42" id="303" />
      <edge source="61" target="64" id="304" />
      <edge source="61" target="27" id="305" />
      <edge source="27" target="64" id="306" />
      <edge source="27" target="16" id="307" />
      <edge source="27" target="25" id="308" />
      <edge source="64" target="53" id="309" />
      <edge source="42" target="1" id="310" />
      <edge source="42" target="31" id="311" />
      <edge source="53" target="67" id="312" />
      <edge source="16" target="48" id="313" />
      <edge source="16" target="33" id="314" />
      <edge source="45" target="76" id="315" />
      <edge source="45" target="48" id="316" />
      <edge source="45" target="33" id="317" />
      <edge source="45" target="31" id="318" />
      <edge source="76" target="48" id="319" />
    </edges>
  </graph>
</gexf>
