<?xml version='1.0' encoding='utf-8'?>
<gexf xmlns="http://www.gexf.net/1.2draft" xmlns:xsi="http://www.w3.org/2001/XMLSchema-instance" xsi:schemaLocation="http://www.gexf.net/1.2draft http://www.gexf.net/1.2draft/gexf.xsd" version="1.2">
  <meta lastmodifieddate="2021-07-19">
    <creator>NetworkX 2.5.1</creator>
  </meta>
  <graph defaultedgetype="undirected" mode="static" name="">
    <nodes>
      <node id="36" label="36" />
      <node id="71" label="71" />
      <node id="8" label="8" />
      <node id="9" label="9" />
      <node id="21" label="21" />
      <node id="37" label="37" />
      <node id="81" label="81" />
      <node id="40" label="40" />
      <node id="59" label="59" />
      <node id="6" label="6" />
      <node id="75" label="75" />
      <node id="73" label="73" />
      <node id="41" label="41" />
      <node id="51" label="51" />
      <node id="25" label="25" />
      <node id="34" label="34" />
      <node id="33" label="33" />
      <node id="47" label="47" />
      <node id="2" label="2" />
      <node id="43" label="43" />
      <node id="78" label="78" />
      <node id="14" label="14" />
      <node id="17" label="17" />
      <node id="53" label="53" />
      <node id="18" label="18" />
      <node id="30" label="30" />
      <node id="58" label="58" />
      <node id="67" label="67" />
      <node id="5" label="5" />
      <node id="28" label="28" />
      <node id="80" label="80" />
      <node id="48" label="48" />
      <node id="70" label="70" />
      <node id="62" label="62" />
      <node id="69" label="69" />
      <node id="29" label="29" />
      <node id="20" label="20" />
      <node id="72" label="72" />
      <node id="3" label="3" />
      <node id="19" label="19" />
      <node id="55" label="55" />
      <node id="22" label="22" />
      <node id="32" label="32" />
      <node id="64" label="64" />
      <node id="24" label="24" />
      <node id="60" label="60" />
      <node id="1" label="1" />
      <node id="16" label="16" />
      <node id="65" label="65" />
      <node id="13" label="13" />
      <node id="52" label="52" />
      <node id="50" label="50" />
      <node id="54" label="54" />
      <node id="39" label="39" />
      <node id="10" label="10" />
      <node id="35" label="35" />
      <node id="76" label="76" />
      <node id="27" label="27" />
      <node id="66" label="66" />
      <node id="68" label="68" />
      <node id="77" label="77" />
      <node id="74" label="74" />
      <node id="7" label="7" />
      <node id="11" label="11" />
      <node id="31" label="31" />
      <node id="79" label="79" />
      <node id="42" label="42" />
      <node id="12" label="12" />
      <node id="23" label="23" />
      <node id="46" label="46" />
      <node id="45" label="45" />
      <node id="38" label="38" />
      <node id="63" label="63" />
      <node id="0" label="0" />
      <node id="49" label="49" />
      <node id="61" label="61" />
      <node id="56" label="56" />
      <node id="4" label="4" />
      <node id="26" label="26" />
      <node id="44" label="44" />
      <node id="57" label="57" />
      <node id="15" label="15" />
    </nodes>
    <edges>
      <edge source="36" target="71" id="0" />
      <edge source="36" target="43" id="1" />
      <edge source="36" target="42" id="2" />
      <edge source="36" target="50" id="3" />
      <edge source="36" target="68" id="4" />
      <edge source="36" target="77" id="5" />
      <edge source="36" target="63" id="6" />
      <edge source="36" target="31" id="7" />
      <edge source="36" target="23" id="8" />
      <edge source="36" target="26" id="9" />
      <edge source="71" target="73" id="10" />
      <edge source="71" target="10" id="11" />
      <edge source="71" target="77" id="12" />
      <edge source="71" target="29" id="13" />
      <edge source="71" target="54" id="14" />
      <edge source="71" target="65" id="15" />
      <edge source="71" target="57" id="16" />
      <edge source="71" target="49" id="17" />
      <edge source="71" target="44" id="18" />
      <edge source="8" target="9" id="19" />
      <edge source="8" target="65" id="20" />
      <edge source="8" target="55" id="21" />
      <edge source="8" target="64" id="22" />
      <edge source="8" target="32" id="23" />
      <edge source="8" target="13" id="24" />
      <edge source="8" target="35" id="25" />
      <edge source="8" target="12" id="26" />
      <edge source="8" target="53" id="27" />
      <edge source="8" target="37" id="28" />
      <edge source="9" target="81" id="29" />
      <edge source="9" target="58" id="30" />
      <edge source="9" target="67" id="31" />
      <edge source="9" target="66" id="32" />
      <edge source="9" target="43" id="33" />
      <edge source="9" target="10" id="34" />
      <edge source="9" target="19" id="35" />
      <edge source="9" target="56" id="36" />
      <edge source="9" target="23" id="37" />
      <edge source="21" target="37" id="38" />
      <edge source="21" target="73" id="39" />
      <edge source="21" target="54" id="40" />
      <edge source="21" target="31" id="41" />
      <edge source="21" target="53" id="42" />
      <edge source="21" target="34" id="43" />
      <edge source="21" target="42" id="44" />
      <edge source="21" target="23" id="45" />
      <edge source="21" target="51" id="46" />
      <edge source="21" target="69" id="47" />
      <edge source="37" target="67" id="48" />
      <edge source="37" target="62" id="49" />
      <edge source="37" target="23" id="50" />
      <edge source="37" target="38" id="51" />
      <edge source="37" target="4" id="52" />
      <edge source="37" target="64" id="53" />
      <edge source="37" target="19" id="54" />
      <edge source="37" target="30" id="55" />
      <edge source="81" target="42" id="56" />
      <edge source="81" target="18" id="57" />
      <edge source="81" target="75" id="58" />
      <edge source="81" target="59" id="59" />
      <edge source="81" target="54" id="60" />
      <edge source="81" target="68" id="61" />
      <edge source="81" target="19" id="62" />
      <edge source="81" target="14" id="63" />
      <edge source="81" target="74" id="64" />
      <edge source="40" target="59" id="65" />
      <edge source="40" target="27" id="66" />
      <edge source="40" target="11" id="67" />
      <edge source="40" target="62" id="68" />
      <edge source="40" target="14" id="69" />
      <edge source="40" target="33" id="70" />
      <edge source="40" target="25" id="71" />
      <edge source="40" target="17" id="72" />
      <edge source="40" target="26" id="73" />
      <edge source="40" target="18" id="74" />
      <edge source="59" target="54" id="75" />
      <edge source="59" target="57" id="76" />
      <edge source="59" target="49" id="77" />
      <edge source="59" target="11" id="78" />
      <edge source="59" target="3" id="79" />
      <edge source="59" target="61" id="80" />
      <edge source="59" target="15" id="81" />
      <edge source="59" target="48" id="82" />
      <edge source="6" target="75" id="83" />
      <edge source="6" target="70" id="84" />
      <edge source="6" target="78" id="85" />
      <edge source="6" target="45" id="86" />
      <edge source="6" target="49" id="87" />
      <edge source="6" target="2" id="88" />
      <edge source="6" target="17" id="89" />
      <edge source="6" target="7" id="90" />
      <edge source="6" target="72" id="91" />
      <edge source="6" target="1" id="92" />
      <edge source="75" target="47" id="93" />
      <edge source="75" target="1" id="94" />
      <edge source="75" target="31" id="95" />
      <edge source="75" target="64" id="96" />
      <edge source="75" target="48" id="97" />
      <edge source="75" target="38" id="98" />
      <edge source="75" target="49" id="99" />
      <edge source="75" target="3" id="100" />
      <edge source="73" target="78" id="101" />
      <edge source="73" target="60" id="102" />
      <edge source="73" target="52" id="103" />
      <edge source="73" target="25" id="104" />
      <edge source="73" target="66" id="105" />
      <edge source="73" target="7" id="106" />
      <edge source="73" target="10" id="107" />
      <edge source="73" target="67" id="108" />
      <edge source="41" target="51" id="109" />
      <edge source="41" target="2" id="110" />
      <edge source="41" target="16" id="111" />
      <edge source="41" target="30" id="112" />
      <edge source="41" target="69" id="113" />
      <edge source="41" target="17" id="114" />
      <edge source="41" target="12" id="115" />
      <edge source="41" target="80" id="116" />
      <edge source="41" target="34" id="117" />
      <edge source="41" target="65" id="118" />
      <edge source="51" target="14" id="119" />
      <edge source="51" target="38" id="120" />
      <edge source="51" target="39" id="121" />
      <edge source="51" target="3" id="122" />
      <edge source="51" target="45" id="123" />
      <edge source="51" target="34" id="124" />
      <edge source="51" target="29" id="125" />
      <edge source="51" target="27" id="126" />
      <edge source="25" target="34" id="127" />
      <edge source="25" target="29" id="128" />
      <edge source="25" target="33" id="129" />
      <edge source="25" target="17" id="130" />
      <edge source="25" target="78" id="131" />
      <edge source="25" target="14" id="132" />
      <edge source="25" target="68" id="133" />
      <edge source="25" target="77" id="134" />
      <edge source="34" target="12" id="135" />
      <edge source="34" target="76" id="136" />
      <edge source="34" target="52" id="137" />
      <edge source="34" target="61" id="138" />
      <edge source="34" target="56" id="139" />
      <edge source="34" target="29" id="140" />
      <edge source="33" target="47" id="141" />
      <edge source="33" target="28" id="142" />
      <edge source="33" target="79" id="143" />
      <edge source="33" target="15" id="144" />
      <edge source="33" target="18" id="145" />
      <edge source="33" target="10" id="146" />
      <edge source="33" target="72" id="147" />
      <edge source="33" target="67" id="148" />
      <edge source="47" target="52" id="149" />
      <edge source="47" target="15" id="150" />
      <edge source="47" target="26" id="151" />
      <edge source="47" target="7" id="152" />
      <edge source="47" target="60" id="153" />
      <edge source="47" target="55" id="154" />
      <edge source="47" target="68" id="155" />
      <edge source="47" target="30" id="156" />
      <edge source="2" target="22" id="157" />
      <edge source="2" target="12" id="158" />
      <edge source="2" target="52" id="159" />
      <edge source="2" target="61" id="160" />
      <edge source="2" target="56" id="161" />
      <edge source="2" target="10" id="162" />
      <edge source="2" target="14" id="163" />
      <edge source="2" target="60" id="164" />
      <edge source="43" target="78" id="165" />
      <edge source="43" target="55" id="166" />
      <edge source="43" target="77" id="167" />
      <edge source="43" target="42" id="168" />
      <edge source="43" target="10" id="169" />
      <edge source="43" target="57" id="170" />
      <edge source="43" target="70" id="171" />
      <edge source="43" target="65" id="172" />
      <edge source="78" target="5" id="173" />
      <edge source="78" target="13" id="174" />
      <edge source="78" target="30" id="175" />
      <edge source="78" target="60" id="176" />
      <edge source="78" target="63" id="177" />
      <edge source="78" target="50" id="178" />
      <edge source="14" target="3" id="179" />
      <edge source="14" target="4" id="180" />
      <edge source="14" target="45" id="181" />
      <edge source="14" target="48" id="182" />
      <edge source="14" target="70" id="183" />
      <edge source="17" target="53" id="184" />
      <edge source="17" target="5" id="185" />
      <edge source="17" target="64" id="186" />
      <edge source="17" target="68" id="187" />
      <edge source="17" target="26" id="188" />
      <edge source="17" target="30" id="189" />
      <edge source="53" target="45" id="190" />
      <edge source="53" target="18" id="191" />
      <edge source="53" target="24" id="192" />
      <edge source="53" target="69" id="193" />
      <edge source="53" target="64" id="194" />
      <edge source="53" target="54" id="195" />
      <edge source="53" target="58" id="196" />
      <edge source="18" target="30" id="197" />
      <edge source="18" target="62" id="198" />
      <edge source="18" target="57" id="199" />
      <edge source="18" target="79" id="200" />
      <edge source="18" target="55" id="201" />
      <edge source="18" target="49" id="202" />
      <edge source="30" target="13" id="203" />
      <edge source="30" target="45" id="204" />
      <edge source="30" target="16" id="205" />
      <edge source="30" target="32" id="206" />
      <edge source="58" target="48" id="207" />
      <edge source="58" target="32" id="208" />
      <edge source="58" target="22" id="209" />
      <edge source="58" target="16" id="210" />
      <edge source="58" target="0" id="211" />
      <edge source="58" target="44" id="212" />
      <edge source="58" target="15" id="213" />
      <edge source="58" target="56" id="214" />
      <edge source="67" target="1" id="215" />
      <edge source="67" target="50" id="216" />
      <edge source="67" target="12" id="217" />
      <edge source="67" target="23" id="218" />
      <edge source="67" target="26" id="219" />
      <edge source="67" target="39" id="220" />
      <edge source="5" target="77" id="221" />
      <edge source="5" target="27" id="222" />
      <edge source="5" target="45" id="223" />
      <edge source="5" target="26" id="224" />
      <edge source="5" target="76" id="225" />
      <edge source="5" target="24" id="226" />
      <edge source="5" target="28" id="227" />
      <edge source="5" target="13" id="228" />
      <edge source="28" target="80" id="229" />
      <edge source="28" target="48" id="230" />
      <edge source="28" target="12" id="231" />
      <edge source="28" target="4" id="232" />
      <edge source="28" target="54" id="233" />
      <edge source="28" target="31" id="234" />
      <edge source="28" target="44" id="235" />
      <edge source="28" target="19" id="236" />
      <edge source="80" target="39" id="237" />
      <edge source="80" target="4" id="238" />
      <edge source="80" target="45" id="239" />
      <edge source="80" target="70" id="240" />
      <edge source="80" target="62" id="241" />
      <edge source="80" target="54" id="242" />
      <edge source="80" target="22" id="243" />
      <edge source="80" target="55" id="244" />
      <edge source="48" target="12" id="245" />
      <edge source="48" target="4" id="246" />
      <edge source="48" target="70" id="247" />
      <edge source="48" target="22" id="248" />
      <edge source="48" target="44" id="249" />
      <edge source="70" target="66" id="250" />
      <edge source="70" target="11" id="251" />
      <edge source="70" target="68" id="252" />
      <edge source="70" target="46" id="253" />
      <edge source="70" target="19" id="254" />
      <edge source="62" target="69" id="255" />
      <edge source="62" target="39" id="256" />
      <edge source="62" target="63" id="257" />
      <edge source="62" target="26" id="258" />
      <edge source="62" target="13" id="259" />
      <edge source="62" target="3" id="260" />
      <edge source="69" target="66" id="261" />
      <edge source="69" target="74" id="262" />
      <edge source="69" target="31" id="263" />
      <edge source="69" target="20" id="264" />
      <edge source="69" target="50" id="265" />
      <edge source="69" target="42" id="266" />
      <edge source="29" target="4" id="267" />
      <edge source="29" target="76" id="268" />
      <edge source="29" target="61" id="269" />
      <edge source="29" target="16" id="270" />
      <edge source="29" target="74" id="271" />
      <edge source="29" target="60" id="272" />
      <edge source="20" target="72" id="273" />
      <edge source="20" target="76" id="274" />
      <edge source="20" target="39" id="275" />
      <edge source="20" target="42" id="276" />
      <edge source="20" target="7" id="277" />
      <edge source="20" target="55" id="278" />
      <edge source="20" target="22" id="279" />
      <edge source="20" target="49" id="280" />
      <edge source="20" target="35" id="281" />
      <edge source="72" target="50" id="282" />
      <edge source="72" target="32" id="283" />
      <edge source="72" target="56" id="284" />
      <edge source="72" target="57" id="285" />
      <edge source="72" target="38" id="286" />
      <edge source="72" target="0" id="287" />
      <edge source="72" target="3" id="288" />
      <edge source="3" target="19" id="289" />
      <edge source="3" target="46" id="290" />
      <edge source="3" target="35" id="291" />
      <edge source="3" target="39" id="292" />
      <edge source="19" target="79" id="293" />
      <edge source="19" target="77" id="294" />
      <edge source="19" target="24" id="295" />
      <edge source="19" target="11" id="296" />
      <edge source="55" target="39" id="297" />
      <edge source="55" target="1" id="298" />
      <edge source="55" target="12" id="299" />
      <edge source="55" target="15" id="300" />
      <edge source="22" target="32" id="301" />
      <edge source="22" target="27" id="302" />
      <edge source="22" target="35" id="303" />
      <edge source="22" target="38" id="304" />
      <edge source="22" target="24" id="305" />
      <edge source="32" target="64" id="306" />
      <edge source="32" target="50" id="307" />
      <edge source="32" target="68" id="308" />
      <edge source="32" target="35" id="309" />
      <edge source="32" target="1" id="310" />
      <edge source="64" target="76" id="311" />
      <edge source="64" target="1" id="312" />
      <edge source="64" target="56" id="313" />
      <edge source="64" target="77" id="314" />
      <edge source="24" target="60" id="315" />
      <edge source="24" target="15" id="316" />
      <edge source="24" target="56" id="317" />
      <edge source="24" target="13" id="318" />
      <edge source="24" target="42" id="319" />
      <edge source="24" target="0" id="320" />
      <edge source="60" target="77" id="321" />
      <edge source="60" target="31" id="322" />
      <edge source="60" target="7" id="323" />
      <edge source="60" target="79" id="324" />
      <edge source="1" target="38" id="325" />
      <edge source="1" target="46" id="326" />
      <edge source="1" target="77" id="327" />
      <edge source="1" target="54" id="328" />
      <edge source="16" target="65" id="329" />
      <edge source="16" target="46" id="330" />
      <edge source="16" target="26" id="331" />
      <edge source="16" target="13" id="332" />
      <edge source="16" target="63" id="333" />
      <edge source="16" target="66" id="334" />
      <edge source="65" target="74" id="335" />
      <edge source="65" target="44" id="336" />
      <edge source="65" target="76" id="337" />
      <edge source="65" target="4" id="338" />
      <edge source="65" target="27" id="339" />
      <edge source="13" target="45" id="340" />
      <edge source="13" target="12" id="341" />
      <edge source="13" target="7" id="342" />
      <edge source="52" target="50" id="343" />
      <edge source="52" target="23" id="344" />
      <edge source="52" target="74" id="345" />
      <edge source="52" target="45" id="346" />
      <edge source="52" target="11" id="347" />
      <edge source="52" target="57" id="348" />
      <edge source="50" target="66" id="349" />
      <edge source="50" target="56" id="350" />
      <edge source="50" target="0" id="351" />
      <edge source="54" target="49" id="352" />
      <edge source="54" target="7" id="353" />
      <edge source="39" target="79" id="354" />
      <edge source="39" target="7" id="355" />
      <edge source="39" target="63" id="356" />
      <edge source="10" target="35" id="357" />
      <edge source="10" target="76" id="358" />
      <edge source="10" target="57" id="359" />
      <edge source="10" target="66" id="360" />
      <edge source="35" target="63" id="361" />
      <edge source="35" target="44" id="362" />
      <edge source="35" target="27" id="363" />
      <edge source="35" target="15" id="364" />
      <edge source="76" target="56" id="365" />
      <edge source="76" target="68" id="366" />
      <edge source="76" target="44" id="367" />
      <edge source="27" target="49" id="368" />
      <edge source="27" target="11" id="369" />
      <edge source="27" target="23" id="370" />
      <edge source="27" target="56" id="371" />
      <edge source="66" target="61" id="372" />
      <edge source="66" target="46" id="373" />
      <edge source="66" target="49" id="374" />
      <edge source="68" target="0" id="375" />
      <edge source="68" target="15" id="376" />
      <edge source="77" target="46" id="377" />
      <edge source="74" target="49" id="378" />
      <edge source="74" target="44" id="379" />
      <edge source="74" target="61" id="380" />
      <edge source="74" target="4" id="381" />
      <edge source="74" target="15" id="382" />
      <edge source="7" target="11" id="383" />
      <edge source="7" target="38" id="384" />
      <edge source="11" target="31" id="385" />
      <edge source="11" target="0" id="386" />
      <edge source="11" target="42" id="387" />
      <edge source="31" target="0" id="388" />
      <edge source="31" target="63" id="389" />
      <edge source="31" target="4" id="390" />
      <edge source="79" target="38" id="391" />
      <edge source="79" target="0" id="392" />
      <edge source="79" target="44" id="393" />
      <edge source="79" target="23" id="394" />
      <edge source="79" target="15" id="395" />
      <edge source="42" target="61" id="396" />
      <edge source="42" target="4" id="397" />
      <edge source="12" target="38" id="398" />
      <edge source="23" target="46" id="399" />
      <edge source="23" target="26" id="400" />
      <edge source="46" target="0" id="401" />
      <edge source="46" target="57" id="402" />
      <edge source="46" target="45" id="403" />
      <edge source="38" target="63" id="404" />
      <edge source="63" target="57" id="405" />
      <edge source="63" target="26" id="406" />
      <edge source="0" target="61" id="407" />
      <edge source="61" target="57" id="408" />
      <edge source="61" target="44" id="409" />
    </edges>
  </graph>
</gexf>
