<?xml version='1.0' encoding='utf-8'?>
<gexf xmlns="http://www.gexf.net/1.2draft" xmlns:xsi="http://www.w3.org/2001/XMLSchema-instance" xsi:schemaLocation="http://www.gexf.net/1.2draft http://www.gexf.net/1.2draft/gexf.xsd" version="1.2">
  <meta lastmodifieddate="2021-07-19">
    <creator>NetworkX 2.5.1</creator>
  </meta>
  <graph defaultedgetype="undirected" mode="static" name="">
    <nodes>
      <node id="32" label="32" />
      <node id="37" label="37" />
      <node id="6" label="6" />
      <node id="18" label="18" />
      <node id="13" label="13" />
      <node id="33" label="33" />
      <node id="4" label="4" />
      <node id="9" label="9" />
      <node id="2" label="2" />
      <node id="39" label="39" />
      <node id="22" label="22" />
      <node id="26" label="26" />
      <node id="12" label="12" />
      <node id="34" label="34" />
      <node id="5" label="5" />
      <node id="28" label="28" />
      <node id="20" label="20" />
      <node id="11" label="11" />
      <node id="44" label="44" />
      <node id="40" label="40" />
      <node id="43" label="43" />
      <node id="1" label="1" />
      <node id="17" label="17" />
      <node id="7" label="7" />
      <node id="15" label="15" />
      <node id="25" label="25" />
      <node id="16" label="16" />
      <node id="24" label="24" />
      <node id="29" label="29" />
      <node id="36" label="36" />
      <node id="30" label="30" />
      <node id="3" label="3" />
      <node id="38" label="38" />
      <node id="10" label="10" />
      <node id="0" label="0" />
      <node id="42" label="42" />
      <node id="21" label="21" />
      <node id="19" label="19" />
      <node id="31" label="31" />
      <node id="23" label="23" />
      <node id="14" label="14" />
      <node id="27" label="27" />
      <node id="41" label="41" />
      <node id="8" label="8" />
      <node id="45" label="45" />
      <node id="35" label="35" />
    </nodes>
    <edges>
      <edge source="32" target="37" id="0" />
      <edge source="32" target="14" id="1" />
      <edge source="32" target="27" id="2" />
      <edge source="32" target="42" id="3" />
      <edge source="32" target="35" id="4" />
      <edge source="37" target="44" id="5" />
      <edge source="37" target="43" id="6" />
      <edge source="37" target="19" id="7" />
      <edge source="37" target="40" id="8" />
      <edge source="6" target="18" id="9" />
      <edge source="6" target="20" id="10" />
      <edge source="6" target="35" id="11" />
      <edge source="6" target="21" id="12" />
      <edge source="6" target="39" id="13" />
      <edge source="18" target="36" id="14" />
      <edge source="18" target="20" id="15" />
      <edge source="18" target="10" id="16" />
      <edge source="18" target="33" id="17" />
      <edge source="13" target="33" id="18" />
      <edge source="13" target="39" id="19" />
      <edge source="13" target="45" id="20" />
      <edge source="13" target="20" id="21" />
      <edge source="13" target="15" id="22" />
      <edge source="33" target="27" id="23" />
      <edge source="33" target="8" id="24" />
      <edge source="33" target="5" id="25" />
      <edge source="4" target="9" id="26" />
      <edge source="4" target="29" id="27" />
      <edge source="4" target="15" id="28" />
      <edge source="4" target="24" id="29" />
      <edge source="4" target="44" id="30" />
      <edge source="9" target="42" id="31" />
      <edge source="9" target="7" id="32" />
      <edge source="9" target="39" id="33" />
      <edge source="9" target="11" id="34" />
      <edge source="2" target="39" id="35" />
      <edge source="2" target="36" id="36" />
      <edge source="2" target="19" id="37" />
      <edge source="2" target="12" id="38" />
      <edge source="2" target="14" id="39" />
      <edge source="39" target="5" id="40" />
      <edge source="22" target="26" id="41" />
      <edge source="22" target="30" id="42" />
      <edge source="22" target="36" id="43" />
      <edge source="22" target="7" id="44" />
      <edge source="22" target="31" id="45" />
      <edge source="26" target="3" id="46" />
      <edge source="26" target="25" id="47" />
      <edge source="26" target="36" id="48" />
      <edge source="26" target="29" id="49" />
      <edge source="12" target="34" id="50" />
      <edge source="12" target="7" id="51" />
      <edge source="12" target="38" id="52" />
      <edge source="12" target="3" id="53" />
      <edge source="34" target="30" id="54" />
      <edge source="34" target="21" id="55" />
      <edge source="34" target="17" id="56" />
      <edge source="34" target="7" id="57" />
      <edge source="5" target="28" id="58" />
      <edge source="5" target="11" id="59" />
      <edge source="5" target="8" id="60" />
      <edge source="28" target="23" id="61" />
      <edge source="28" target="27" id="62" />
      <edge source="28" target="19" id="63" />
      <edge source="28" target="8" id="64" />
      <edge source="20" target="30" id="65" />
      <edge source="20" target="43" id="66" />
      <edge source="11" target="44" id="67" />
      <edge source="11" target="0" id="68" />
      <edge source="11" target="38" id="69" />
      <edge source="44" target="27" id="70" />
      <edge source="44" target="21" id="71" />
      <edge source="40" target="43" id="72" />
      <edge source="40" target="10" id="73" />
      <edge source="40" target="29" id="74" />
      <edge source="40" target="24" id="75" />
      <edge source="43" target="35" id="76" />
      <edge source="43" target="31" id="77" />
      <edge source="1" target="17" id="78" />
      <edge source="1" target="10" id="79" />
      <edge source="1" target="25" id="80" />
      <edge source="1" target="41" id="81" />
      <edge source="1" target="45" id="82" />
      <edge source="17" target="41" id="83" />
      <edge source="17" target="25" id="84" />
      <edge source="17" target="0" id="85" />
      <edge source="7" target="42" id="86" />
      <edge source="15" target="25" id="87" />
      <edge source="15" target="45" id="88" />
      <edge source="15" target="24" id="89" />
      <edge source="25" target="31" id="90" />
      <edge source="16" target="24" id="91" />
      <edge source="16" target="19" id="92" />
      <edge source="16" target="21" id="93" />
      <edge source="16" target="14" id="94" />
      <edge source="16" target="10" id="95" />
      <edge source="24" target="23" id="96" />
      <edge source="29" target="36" id="97" />
      <edge source="29" target="3" id="98" />
      <edge source="30" target="0" id="99" />
      <edge source="30" target="35" id="100" />
      <edge source="3" target="41" id="101" />
      <edge source="3" target="27" id="102" />
      <edge source="38" target="8" id="103" />
      <edge source="38" target="42" id="104" />
      <edge source="38" target="14" id="105" />
      <edge source="10" target="0" id="106" />
      <edge source="0" target="42" id="107" />
      <edge source="21" target="14" id="108" />
      <edge source="19" target="23" id="109" />
      <edge source="31" target="41" id="110" />
      <edge source="31" target="45" id="111" />
      <edge source="23" target="8" id="112" />
      <edge source="23" target="41" id="113" />
      <edge source="45" target="35" id="114" />
    </edges>
  </graph>
</gexf>
