<?xml version='1.0' encoding='utf-8'?>
<gexf xmlns="http://www.gexf.net/1.2draft" xmlns:xsi="http://www.w3.org/2001/XMLSchema-instance" xsi:schemaLocation="http://www.gexf.net/1.2draft http://www.gexf.net/1.2draft/gexf.xsd" version="1.2">
  <meta lastmodifieddate="2021-07-19">
    <creator>NetworkX 2.5.1</creator>
  </meta>
  <graph defaultedgetype="undirected" mode="static" name="">
    <nodes>
      <node id="15" label="15" />
      <node id="24" label="24" />
      <node id="30" label="30" />
      <node id="49" label="49" />
      <node id="14" label="14" />
      <node id="62" label="62" />
      <node id="33" label="33" />
      <node id="39" label="39" />
      <node id="12" label="12" />
      <node id="16" label="16" />
      <node id="50" label="50" />
      <node id="61" label="61" />
      <node id="6" label="6" />
      <node id="27" label="27" />
      <node id="54" label="54" />
      <node id="42" label="42" />
      <node id="60" label="60" />
      <node id="9" label="9" />
      <node id="66" label="66" />
      <node id="25" label="25" />
      <node id="56" label="56" />
      <node id="26" label="26" />
      <node id="51" label="51" />
      <node id="43" label="43" />
      <node id="2" label="2" />
      <node id="57" label="57" />
      <node id="0" label="0" />
      <node id="5" label="5" />
      <node id="37" label="37" />
      <node id="31" label="31" />
      <node id="38" label="38" />
      <node id="13" label="13" />
      <node id="63" label="63" />
      <node id="17" label="17" />
      <node id="35" label="35" />
      <node id="28" label="28" />
      <node id="22" label="22" />
      <node id="44" label="44" />
      <node id="21" label="21" />
      <node id="46" label="46" />
      <node id="1" label="1" />
      <node id="67" label="67" />
      <node id="68" label="68" />
      <node id="7" label="7" />
      <node id="20" label="20" />
      <node id="59" label="59" />
      <node id="23" label="23" />
      <node id="55" label="55" />
      <node id="11" label="11" />
      <node id="32" label="32" />
      <node id="8" label="8" />
      <node id="45" label="45" />
      <node id="41" label="41" />
      <node id="64" label="64" />
      <node id="47" label="47" />
      <node id="18" label="18" />
      <node id="3" label="3" />
      <node id="36" label="36" />
      <node id="10" label="10" />
      <node id="29" label="29" />
      <node id="58" label="58" />
      <node id="4" label="4" />
      <node id="53" label="53" />
      <node id="34" label="34" />
      <node id="40" label="40" />
      <node id="52" label="52" />
      <node id="65" label="65" />
      <node id="19" label="19" />
      <node id="48" label="48" />
    </nodes>
    <edges>
      <edge source="15" target="24" id="0" />
      <edge source="15" target="50" id="1" />
      <edge source="24" target="40" id="2" />
      <edge source="30" target="49" id="3" />
      <edge source="30" target="28" id="4" />
      <edge source="49" target="14" id="5" />
      <edge source="14" target="62" id="6" />
      <edge source="62" target="7" id="7" />
      <edge source="33" target="39" id="8" />
      <edge source="33" target="54" id="9" />
      <edge source="39" target="58" id="10" />
      <edge source="12" target="16" id="11" />
      <edge source="12" target="37" id="12" />
      <edge source="16" target="55" id="13" />
      <edge source="50" target="61" id="14" />
      <edge source="61" target="43" id="15" />
      <edge source="6" target="27" id="16" />
      <edge source="6" target="59" id="17" />
      <edge source="27" target="32" id="18" />
      <edge source="54" target="45" id="19" />
      <edge source="42" target="60" id="20" />
      <edge source="42" target="64" id="21" />
      <edge source="60" target="56" id="22" />
      <edge source="9" target="66" id="23" />
      <edge source="9" target="17" id="24" />
      <edge source="66" target="35" id="25" />
      <edge source="25" target="56" id="26" />
      <edge source="25" target="2" id="27" />
      <edge source="26" target="51" id="28" />
      <edge source="26" target="63" id="29" />
      <edge source="51" target="41" id="30" />
      <edge source="43" target="35" id="31" />
      <edge source="2" target="57" id="32" />
      <edge source="57" target="68" id="33" />
      <edge source="0" target="5" id="34" />
      <edge source="0" target="34" id="35" />
      <edge source="5" target="64" id="36" />
      <edge source="37" target="18" id="37" />
      <edge source="31" target="38" id="38" />
      <edge source="31" target="7" id="39" />
      <edge source="38" target="68" id="40" />
      <edge source="13" target="63" id="41" />
      <edge source="13" target="34" id="42" />
      <edge source="17" target="41" id="43" />
      <edge source="28" target="40" id="44" />
      <edge source="22" target="44" id="45" />
      <edge source="22" target="58" id="46" />
      <edge source="44" target="1" id="47" />
      <edge source="21" target="46" id="48" />
      <edge source="21" target="20" id="49" />
      <edge source="46" target="52" id="50" />
      <edge source="1" target="67" id="51" />
      <edge source="67" target="47" id="52" />
      <edge source="20" target="59" id="53" />
      <edge source="23" target="55" id="54" />
      <edge source="23" target="10" id="55" />
      <edge source="11" target="32" id="56" />
      <edge source="11" target="3" id="57" />
      <edge source="8" target="45" id="58" />
      <edge source="8" target="29" id="59" />
      <edge source="47" target="36" id="60" />
      <edge source="18" target="48" id="61" />
      <edge source="3" target="36" id="62" />
      <edge source="10" target="53" id="63" />
      <edge source="29" target="48" id="64" />
      <edge source="4" target="53" id="65" />
      <edge source="4" target="19" id="66" />
      <edge source="52" target="65" id="67" />
      <edge source="65" target="19" id="68" />
    </edges>
  </graph>
</gexf>
