<?xml version='1.0' encoding='utf-8'?>
<gexf xmlns="http://www.gexf.net/1.2draft" xmlns:xsi="http://www.w3.org/2001/XMLSchema-instance" xsi:schemaLocation="http://www.gexf.net/1.2draft http://www.gexf.net/1.2draft/gexf.xsd" version="1.2">
  <meta lastmodifieddate="2021-07-19">
    <creator>NetworkX 2.5.1</creator>
  </meta>
  <graph defaultedgetype="undirected" mode="static" name="">
    <nodes>
      <node id="7" label="7" />
      <node id="17" label="17" />
      <node id="26" label="26" />
      <node id="4" label="4" />
      <node id="9" label="9" />
      <node id="3" label="3" />
      <node id="13" label="13" />
      <node id="8" label="8" />
      <node id="21" label="21" />
      <node id="18" label="18" />
      <node id="5" label="5" />
      <node id="19" label="19" />
      <node id="11" label="11" />
      <node id="23" label="23" />
      <node id="0" label="0" />
      <node id="1" label="1" />
      <node id="15" label="15" />
      <node id="24" label="24" />
      <node id="6" label="6" />
      <node id="20" label="20" />
      <node id="16" label="16" />
      <node id="22" label="22" />
      <node id="12" label="12" />
      <node id="2" label="2" />
      <node id="25" label="25" />
      <node id="14" label="14" />
      <node id="10" label="10" />
    </nodes>
    <edges>
      <edge source="7" target="17" id="0" />
      <edge source="7" target="26" id="1" />
      <edge source="7" target="0" id="2" />
      <edge source="7" target="11" id="3" />
      <edge source="7" target="3" id="4" />
      <edge source="7" target="20" id="5" />
      <edge source="7" target="22" id="6" />
      <edge source="7" target="2" id="7" />
      <edge source="7" target="15" id="8" />
      <edge source="7" target="8" id="9" />
      <edge source="17" target="21" id="10" />
      <edge source="17" target="13" id="11" />
      <edge source="17" target="3" id="12" />
      <edge source="17" target="10" id="13" />
      <edge source="17" target="25" id="14" />
      <edge source="17" target="20" id="15" />
      <edge source="17" target="11" id="16" />
      <edge source="17" target="5" id="17" />
      <edge source="17" target="19" id="18" />
      <edge source="26" target="24" id="19" />
      <edge source="26" target="14" id="20" />
      <edge source="26" target="16" id="21" />
      <edge source="26" target="20" id="22" />
      <edge source="26" target="10" id="23" />
      <edge source="26" target="25" id="24" />
      <edge source="26" target="19" id="25" />
      <edge source="26" target="8" id="26" />
      <edge source="26" target="5" id="27" />
      <edge source="4" target="9" id="28" />
      <edge source="4" target="22" id="29" />
      <edge source="4" target="15" id="30" />
      <edge source="4" target="24" id="31" />
      <edge source="4" target="10" id="32" />
      <edge source="4" target="19" id="33" />
      <edge source="4" target="1" id="34" />
      <edge source="4" target="3" id="35" />
      <edge source="4" target="12" id="36" />
      <edge source="4" target="14" id="37" />
      <edge source="9" target="8" id="38" />
      <edge source="9" target="0" id="39" />
      <edge source="9" target="14" id="40" />
      <edge source="9" target="16" id="41" />
      <edge source="9" target="1" id="42" />
      <edge source="9" target="18" id="43" />
      <edge source="9" target="11" id="44" />
      <edge source="9" target="22" id="45" />
      <edge source="9" target="15" id="46" />
      <edge source="3" target="13" id="47" />
      <edge source="3" target="6" id="48" />
      <edge source="3" target="24" id="49" />
      <edge source="3" target="8" id="50" />
      <edge source="3" target="19" id="51" />
      <edge source="3" target="1" id="52" />
      <edge source="3" target="5" id="53" />
      <edge source="13" target="19" id="54" />
      <edge source="13" target="6" id="55" />
      <edge source="13" target="12" id="56" />
      <edge source="13" target="16" id="57" />
      <edge source="13" target="18" id="58" />
      <edge source="13" target="5" id="59" />
      <edge source="13" target="11" id="60" />
      <edge source="13" target="15" id="61" />
      <edge source="8" target="18" id="62" />
      <edge source="8" target="20" id="63" />
      <edge source="8" target="6" id="64" />
      <edge source="8" target="10" id="65" />
      <edge source="8" target="12" id="66" />
      <edge source="8" target="21" id="67" />
      <edge source="21" target="18" id="68" />
      <edge source="21" target="16" id="69" />
      <edge source="21" target="22" id="70" />
      <edge source="21" target="24" id="71" />
      <edge source="21" target="2" id="72" />
      <edge source="21" target="6" id="73" />
      <edge source="21" target="19" id="74" />
      <edge source="21" target="0" id="75" />
      <edge source="18" target="12" id="76" />
      <edge source="18" target="11" id="77" />
      <edge source="18" target="25" id="78" />
      <edge source="18" target="14" id="79" />
      <edge source="18" target="10" id="80" />
      <edge source="18" target="22" id="81" />
      <edge source="5" target="19" id="82" />
      <edge source="5" target="14" id="83" />
      <edge source="5" target="16" id="84" />
      <edge source="5" target="25" id="85" />
      <edge source="5" target="22" id="86" />
      <edge source="5" target="15" id="87" />
      <edge source="19" target="16" id="88" />
      <edge source="19" target="12" id="89" />
      <edge source="19" target="11" id="90" />
      <edge source="11" target="23" id="91" />
      <edge source="11" target="25" id="92" />
      <edge source="11" target="20" id="93" />
      <edge source="11" target="10" id="94" />
      <edge source="23" target="0" id="95" />
      <edge source="23" target="15" id="96" />
      <edge source="23" target="24" id="97" />
      <edge source="23" target="1" id="98" />
      <edge source="23" target="16" id="99" />
      <edge source="23" target="10" id="100" />
      <edge source="23" target="12" id="101" />
      <edge source="23" target="2" id="102" />
      <edge source="23" target="6" id="103" />
      <edge source="0" target="2" id="104" />
      <edge source="0" target="25" id="105" />
      <edge source="0" target="20" id="106" />
      <edge source="0" target="15" id="107" />
      <edge source="0" target="24" id="108" />
      <edge source="0" target="1" id="109" />
      <edge source="1" target="15" id="110" />
      <edge source="1" target="24" id="111" />
      <edge source="1" target="12" id="112" />
      <edge source="1" target="14" id="113" />
      <edge source="1" target="25" id="114" />
      <edge source="15" target="2" id="115" />
      <edge source="15" target="6" id="116" />
      <edge source="24" target="16" id="117" />
      <edge source="24" target="10" id="118" />
      <edge source="24" target="2" id="119" />
      <edge source="6" target="20" id="120" />
      <edge source="6" target="22" id="121" />
      <edge source="6" target="14" id="122" />
      <edge source="6" target="25" id="123" />
      <edge source="20" target="22" id="124" />
      <edge source="20" target="12" id="125" />
      <edge source="20" target="25" id="126" />
      <edge source="16" target="22" id="127" />
      <edge source="16" target="2" id="128" />
      <edge source="22" target="2" id="129" />
      <edge source="12" target="10" id="130" />
      <edge source="12" target="14" id="131" />
      <edge source="2" target="25" id="132" />
      <edge source="2" target="14" id="133" />
      <edge source="14" target="10" id="134" />
    </edges>
  </graph>
</gexf>
