<?xml version='1.0' encoding='utf-8'?>
<gexf xmlns="http://www.gexf.net/1.2draft" xmlns:xsi="http://www.w3.org/2001/XMLSchema-instance" xsi:schemaLocation="http://www.gexf.net/1.2draft http://www.gexf.net/1.2draft/gexf.xsd" version="1.2">
  <meta lastmodifieddate="2021-07-19">
    <creator>NetworkX 2.5.1</creator>
  </meta>
  <graph defaultedgetype="undirected" mode="static" name="">
    <nodes>
      <node id="4" label="4" />
      <node id="13" label="13" />
      <node id="12" label="12" />
      <node id="26" label="26" />
      <node id="7" label="7" />
      <node id="10" label="10" />
      <node id="14" label="14" />
      <node id="20" label="20" />
      <node id="5" label="5" />
      <node id="23" label="23" />
      <node id="9" label="9" />
      <node id="25" label="25" />
      <node id="3" label="3" />
      <node id="16" label="16" />
      <node id="21" label="21" />
      <node id="27" label="27" />
      <node id="1" label="1" />
      <node id="17" label="17" />
      <node id="18" label="18" />
      <node id="22" label="22" />
      <node id="0" label="0" />
      <node id="24" label="24" />
      <node id="6" label="6" />
      <node id="19" label="19" />
      <node id="8" label="8" />
      <node id="15" label="15" />
      <node id="2" label="2" />
      <node id="11" label="11" />
    </nodes>
    <edges>
      <edge source="4" target="13" id="0" />
      <edge source="12" target="26" id="1" />
      <edge source="7" target="10" id="2" />
      <edge source="14" target="20" id="3" />
      <edge source="5" target="23" id="4" />
      <edge source="9" target="25" id="5" />
      <edge source="3" target="16" id="6" />
      <edge source="21" target="27" id="7" />
      <edge source="1" target="17" id="8" />
      <edge source="18" target="22" id="9" />
      <edge source="0" target="24" id="10" />
      <edge source="6" target="19" id="11" />
      <edge source="8" target="15" id="12" />
      <edge source="2" target="11" id="13" />
    </edges>
  </graph>
</gexf>
