<?xml version='1.0' encoding='utf-8'?>
<gexf xmlns="http://www.gexf.net/1.2draft" xmlns:xsi="http://www.w3.org/2001/XMLSchema-instance" xsi:schemaLocation="http://www.gexf.net/1.2draft http://www.gexf.net/1.2draft/gexf.xsd" version="1.2">
  <meta lastmodifieddate="2021-07-19">
    <creator>NetworkX 2.5.1</creator>
  </meta>
  <graph defaultedgetype="undirected" mode="static" name="">
    <nodes>
      <node id="15" label="15" />
      <node id="21" label="21" />
      <node id="6" label="6" />
      <node id="18" label="18" />
      <node id="7" label="7" />
      <node id="17" label="17" />
      <node id="4" label="4" />
      <node id="9" label="9" />
      <node id="3" label="3" />
      <node id="13" label="13" />
      <node id="11" label="11" />
      <node id="14" label="14" />
      <node id="2" label="2" />
      <node id="1" label="1" />
      <node id="24" label="24" />
      <node id="23" label="23" />
      <node id="16" label="16" />
      <node id="0" label="0" />
      <node id="10" label="10" />
      <node id="20" label="20" />
      <node id="19" label="19" />
      <node id="12" label="12" />
      <node id="25" label="25" />
      <node id="8" label="8" />
      <node id="5" label="5" />
      <node id="22" label="22" />
    </nodes>
    <edges>
      <edge source="15" target="21" id="0" />
      <edge source="15" target="23" id="1" />
      <edge source="15" target="14" id="2" />
      <edge source="15" target="3" id="3" />
      <edge source="15" target="25" id="4" />
      <edge source="15" target="10" id="5" />
      <edge source="15" target="12" id="6" />
      <edge source="15" target="22" id="7" />
      <edge source="15" target="24" id="8" />
      <edge source="15" target="19" id="9" />
      <edge source="21" target="18" id="10" />
      <edge source="21" target="13" id="11" />
      <edge source="21" target="1" id="12" />
      <edge source="21" target="16" id="13" />
      <edge source="21" target="20" id="14" />
      <edge source="21" target="2" id="15" />
      <edge source="21" target="8" id="16" />
      <edge source="21" target="23" id="17" />
      <edge source="21" target="11" id="18" />
      <edge source="6" target="18" id="19" />
      <edge source="6" target="11" id="20" />
      <edge source="6" target="22" id="21" />
      <edge source="6" target="24" id="22" />
      <edge source="6" target="10" id="23" />
      <edge source="6" target="19" id="24" />
      <edge source="6" target="0" id="25" />
      <edge source="6" target="1" id="26" />
      <edge source="6" target="23" id="27" />
      <edge source="6" target="25" id="28" />
      <edge source="18" target="4" id="29" />
      <edge source="18" target="17" id="30" />
      <edge source="18" target="25" id="31" />
      <edge source="18" target="3" id="32" />
      <edge source="18" target="9" id="33" />
      <edge source="18" target="20" id="34" />
      <edge source="18" target="10" id="35" />
      <edge source="18" target="24" id="36" />
      <edge source="7" target="17" id="37" />
      <edge source="7" target="12" id="38" />
      <edge source="7" target="16" id="39" />
      <edge source="7" target="1" id="40" />
      <edge source="7" target="3" id="41" />
      <edge source="7" target="20" id="42" />
      <edge source="7" target="22" id="43" />
      <edge source="7" target="2" id="44" />
      <edge source="7" target="24" id="45" />
      <edge source="7" target="8" id="46" />
      <edge source="17" target="14" id="47" />
      <edge source="17" target="12" id="48" />
      <edge source="17" target="2" id="49" />
      <edge source="17" target="20" id="50" />
      <edge source="17" target="8" id="51" />
      <edge source="17" target="22" id="52" />
      <edge source="17" target="11" id="53" />
      <edge source="17" target="5" id="54" />
      <edge source="4" target="9" id="55" />
      <edge source="4" target="2" id="56" />
      <edge source="4" target="25" id="57" />
      <edge source="4" target="22" id="58" />
      <edge source="4" target="8" id="59" />
      <edge source="4" target="0" id="60" />
      <edge source="4" target="10" id="61" />
      <edge source="4" target="3" id="62" />
      <edge source="4" target="12" id="63" />
      <edge source="9" target="0" id="64" />
      <edge source="9" target="14" id="65" />
      <edge source="9" target="5" id="66" />
      <edge source="9" target="1" id="67" />
      <edge source="9" target="23" id="68" />
      <edge source="9" target="13" id="69" />
      <edge source="9" target="22" id="70" />
      <edge source="9" target="2" id="71" />
      <edge source="3" target="13" id="72" />
      <edge source="3" target="19" id="73" />
      <edge source="3" target="5" id="74" />
      <edge source="3" target="23" id="75" />
      <edge source="3" target="16" id="76" />
      <edge source="3" target="25" id="77" />
      <edge source="13" target="19" id="78" />
      <edge source="13" target="12" id="79" />
      <edge source="13" target="14" id="80" />
      <edge source="13" target="23" id="81" />
      <edge source="13" target="5" id="82" />
      <edge source="13" target="0" id="83" />
      <edge source="13" target="22" id="84" />
      <edge source="11" target="14" id="85" />
      <edge source="11" target="2" id="86" />
      <edge source="11" target="16" id="87" />
      <edge source="11" target="25" id="88" />
      <edge source="11" target="5" id="89" />
      <edge source="11" target="0" id="90" />
      <edge source="11" target="20" id="91" />
      <edge source="14" target="1" id="92" />
      <edge source="14" target="23" id="93" />
      <edge source="14" target="12" id="94" />
      <edge source="14" target="2" id="95" />
      <edge source="14" target="20" id="96" />
      <edge source="2" target="10" id="97" />
      <edge source="2" target="19" id="98" />
      <edge source="2" target="16" id="99" />
      <edge source="1" target="24" id="100" />
      <edge source="1" target="10" id="101" />
      <edge source="1" target="5" id="102" />
      <edge source="1" target="25" id="103" />
      <edge source="1" target="22" id="104" />
      <edge source="24" target="10" id="105" />
      <edge source="24" target="23" id="106" />
      <edge source="24" target="19" id="107" />
      <edge source="24" target="0" id="108" />
      <edge source="24" target="5" id="109" />
      <edge source="23" target="20" id="110" />
      <edge source="23" target="19" id="111" />
      <edge source="16" target="0" id="112" />
      <edge source="16" target="5" id="113" />
      <edge source="16" target="12" id="114" />
      <edge source="16" target="25" id="115" />
      <edge source="16" target="8" id="116" />
      <edge source="0" target="10" id="117" />
      <edge source="0" target="19" id="118" />
      <edge source="0" target="12" id="119" />
      <edge source="10" target="20" id="120" />
      <edge source="10" target="8" id="121" />
      <edge source="20" target="12" id="122" />
      <edge source="20" target="8" id="123" />
      <edge source="19" target="22" id="124" />
      <edge source="19" target="25" id="125" />
      <edge source="12" target="8" id="126" />
      <edge source="25" target="8" id="127" />
      <edge source="8" target="5" id="128" />
      <edge source="5" target="22" id="129" />
    </edges>
  </graph>
</gexf>
